{
    "src_folders": ["automation_tests/tests"],
    "output_folder": "automation_tests/reports",
    "custom_commands_path": "",
    "custom_assertions_path": "",
    "page_objects_path": "",
    "globals_path": "",

    "selenium": {
        "start_process": true,
        "server_path": "automation_tests/libs/selenium-server-standalone-3.4.0.jar",
        "log_path": "",
        "port": 4444,
        "cli_args": {
            "webdriver.chrome.driver": "automation_tests/libs/chromedriver"
        }
    },

    "test_settings": {
        "default": {
            "launch_url": "http://127.0.0.1",
            "selenium_port": 4444,
            "selenium_host": "127.0.0.1",
            "silent": true,
            "screenshots": {
                "enabled": false,
                "path": ""
            },
            "desiredCapabilities": {
                "browserName": "chrome",
                "marionette": true
            }
        },

        "chrome": {
            "desiredCapabilities": {
                "browserName": "chrome"
            }
        }
    }
}
